serial/simulation/qsim/encoder-checker-crc8.msim.vcd
$comment
	File created using the following command:
		vcd file encoder-checker-crc8.msim.vcd -direction
$end
$date
	Wed Dec 09 20:32:02 2020
$end
$version
	ModelSim Version 2020.1
$end
$timescale
	1ps
$end

$scope module encoder_serial_vhd_vec_tst $end
$var wire 1 ! ain $end
$var wire 1 " ar $end
$var wire 1 # clk $end
$var wire 1 $ ended $end
$var wire 1 % nGRst $end

$scope module i1 $end
$var wire 1 & gnd $end
$var wire 1 ' vcc $end
$var wire 1 ( unknown $end
$var wire 1 ) devoe $end
$var wire 1 * devclrn $end
$var wire 1 + devpor $end
$var wire 1 , ww_devoe $end
$var wire 1 - ww_devclrn $end
$var wire 1 . ww_devpor $end
$var wire 1 / ww_clk $end
$var wire 1 0 ww_nGRst $end
$var wire 1 1 ww_ain $end
$var wire 1 2 ww_ar $end
$var wire 1 3 ww_ended $end
$var wire 1 4 \nGRst~inputclkctrl_INCLK_bus\ [3] $end
$var wire 1 5 \nGRst~inputclkctrl_INCLK_bus\ [2] $end
$var wire 1 6 \nGRst~inputclkctrl_INCLK_bus\ [1] $end
$var wire 1 7 \nGRst~inputclkctrl_INCLK_bus\ [0] $end
$var wire 1 8 \clk~inputclkctrl_INCLK_bus\ [3] $end
$var wire 1 9 \clk~inputclkctrl_INCLK_bus\ [2] $end
$var wire 1 : \clk~inputclkctrl_INCLK_bus\ [1] $end
$var wire 1 ; \clk~inputclkctrl_INCLK_bus\ [0] $end
$var wire 1 < \ar~output_o\ $end
$var wire 1 = \ended~output_o\ $end
$var wire 1 > \clk~input_o\ $end
$var wire 1 ? \clk~inputclkctrl_outclk\ $end
$var wire 1 @ \semi_parallel|counter|ff0|andd1|Q~0_combout\ $end
$var wire 1 A \nGRst~input_o\ $end
$var wire 1 B \nGRst~inputclkctrl_outclk\ $end
$var wire 1 C \semi_parallel|counter|ff0|andd1|Q~q\ $end
$var wire 1 D \semi_parallel|counter|ff1|andd1|Q~0_combout\ $end
$var wire 1 E \semi_parallel|counter|ff1|andd1|Q~q\ $end
$var wire 1 F \semi_parallel|counter|ff2|andd1|Q~0_combout\ $end
$var wire 1 G \semi_parallel|counter|ff2|andd1|Q~q\ $end
$var wire 1 H \semi_parallel|counter|ff3|andd1|Q~0_combout\ $end
$var wire 1 I \semi_parallel|counter|ff3|andd1|Q~q\ $end
$var wire 1 J \semi_parallel|final1|y~combout\ $end
$var wire 1 K \semi_parallel|final2|Q~q\ $end
$var wire 1 L \semi_parallel|nd|ff0|andd1|Q~0_combout\ $end
$var wire 1 M \semi_parallel|nd|ff0|andd1|Q~q\ $end
$var wire 1 N \semi_parallel|nd|s~combout\ $end
$var wire 1 O \serializer|counter|ff0|andd1|Q~0_combout\ $end
$var wire 1 P \serializer|counter|ff0|andd1|Q~q\ $end
$var wire 1 Q \serializer|counter|ff1|andd1|Q~0_combout\ $end
$var wire 1 R \serializer|counter|ff1|andd1|Q~q\ $end
$var wire 1 S \serializer|counter|ff2|andd1|Q~0_combout\ $end
$var wire 1 T \serializer|counter|ff2|andd1|Q~q\ $end
$var wire 1 U \semi_parallel|ai_div|sel|Mux6~0_combout\ $end
$var wire 1 V \ain~input_o\ $end
$var wire 1 W \semi_parallel|ai_div|nr|y~combout\ $end
$var wire 1 X \semi_parallel|xors|fft7|andd1|Q~0_combout\ $end
$var wire 1 Y \semi_parallel|xors|fft7|andd1|Q~q\ $end
$var wire 1 Z \semi_parallel|ai_div|sel|Mux7~0_combout\ $end
$var wire 1 [ \semi_parallel|xors|fft8|andd1|Q~0_combout\ $end
$var wire 1 \ \semi_parallel|xors|fft8|andd1|Q~q\ $end
$var wire 1 ] \semi_parallel|ai_div|sel|Mux4~0_combout\ $end
$var wire 1 ^ \semi_parallel|xors|fft5|andd1|Q~0_combout\ $end
$var wire 1 _ \semi_parallel|xors|fft5|andd1|Q~q\ $end
$var wire 1 ` \semi_parallel|ai_div|sel|Mux5~0_combout\ $end
$var wire 1 a \semi_parallel|xors|fft6|andd1|Q~0_combout\ $end
$var wire 1 b \semi_parallel|xors|fft6|andd1|Q~q\ $end
$var wire 1 c \serializer|mux|res2|final|o~2_combout\ $end
$var wire 1 d \serializer|mux|res2|final|o~3_combout\ $end
$var wire 1 e \semi_parallel|ai_div|sel|Mux1~0_combout\ $end
$var wire 1 f \semi_parallel|xors|fft2|andd1|Q~0_combout\ $end
$var wire 1 g \semi_parallel|xors|fft2|andd1|Q~q\ $end
$var wire 1 h \semi_parallel|ai_div|sel|Mux0~0_combout\ $end
$var wire 1 i \semi_parallel|xors|fft1|andd1|Q~0_combout\ $end
$var wire 1 j \semi_parallel|xors|fft1|andd1|Q~q\ $end
$var wire 1 k \serializer|mux|res2|final|o~0_combout\ $end
$var wire 1 l \semi_parallel|ai_div|sel|Mux2~0_combout\ $end
$var wire 1 m \semi_parallel|xors|fft3|andd1|Q~0_combout\ $end
$var wire 1 n \semi_parallel|xors|fft3|andd1|Q~q\ $end
$var wire 1 o \semi_parallel|ai_div|sel|Mux3~0_combout\ $end
$var wire 1 p \semi_parallel|xors|fft4|andd1|Q~0_combout\ $end
$var wire 1 q \semi_parallel|xors|fft4|andd1|Q~q\ $end
$var wire 1 r \serializer|mux|res2|final|o~1_combout\ $end
$var wire 1 s \final|o~0_combout\ $end
$var wire 1 t \final|o~1_combout\ $end
$upscope $end
$upscope $end
$enddefinitions $end
#0
$dumpvars
1!
1"
0#
0$
1%
0&
1'
x(
1)
1*
1+
1,
1-
1.
0/
10
11
12
03
1<
0=
0>
0?
1@
1A
1B
0C
0D
0E
0F
0G
0H
0I
0J
0K
0L
0M
0N
1O
0P
0Q
0R
0S
0T
0U
1V
1W
1X
0Y
0Z
1[
0\
0]
0^
0_
0`
1a
0b
0c
0d
0e
0f
0g
0h
0i
0j
0k
0l
0m
0n
0o
0p
0q
0r
1s
1t
18
19
1:
0;
14
15
16
17
$end
#15000
1#
1/
1>
1;
1?
1C
1Y
1\
1b
0a
0[
0X
0@
1D
1U
1Z
1h
1o
1p
1i
1[
1X
#30000
0#
0/
0>
0;
0?
#45000
1#
1/
1>
1;
1?
0C
1E
0b
1j
1q
0p
0i
1k
1a
1@
0U
1]
1`
1e
0h
0o
1p
1i
1f
0a
1^
0X
1r
#60000
0#
0/
0>
0;
0?
#75000
1#
1/
1>
1;
1?
1C
0Y
1_
1g
0f
0^
1c
1X
0@
0D
1F
1U
0Z
0]
0`
0e
1l
1m
1f
1a
1^
0[
0X
1d
#90000
0#
0/
0>
0;
0?
#105000
1#
1/
1>
1;
1?
0C
0E
1G
0\
1b
1n
0m
0a
1[
1@
1h
0l
1m
0i
#120000
0#
0/
0>
0;
0?
#135000
1#
1/
1>
1;
1?
1C
1\
0b
0j
1i
0k
1a
0[
0@
1D
1e
1o
0p
0f
0r
#150000
0#
0/
0>
0;
0?
#165000
1#
1/
1>
1;
1?
0C
1E
0\
1b
0g
1j
0q
1p
0i
1f
1k
0a
1[
1@
1]
1l
0m
0^
1r
#180000
0#
0/
0>
0;
0?
#195000
1#
1/
1>
1;
1?
1C
1\
0_
0b
1g
0j
0n
1q
0p
1m
1i
0f
0k
1a
1^
0c
0[
0@
0D
0F
1H
1`
0o
1p
0a
0d
0r
#210000
0#
0/
0>
0;
0?
#225000
1#
1/
1>
1;
1?
0C
0E
0G
1I
0\
1_
0g
1j
1n
0m
0i
1f
1k
0^
1c
1[
1@
0U
0]
1^
1X
1d
1r
#240000
0#
0/
0>
0;
0?
#255000
1#
1/
1>
1;
1?
1C
1Y
1\
1g
0j
0n
1m
1i
0f
0k
0[
0X
0@
1D
1Z
0`
1a
1[
0r
#270000
0#
0/
0>
0;
0?
#285000
1#
1/
1>
1;
1?
0C
1E
0Y
1b
0g
1j
1n
0m
0i
1f
1k
0a
1X
1@
0Z
1`
0h
1o
0p
1i
1a
0[
1r
#300000
0#
0/
0>
0;
0?
#315000
1#
1/
1>
1;
1?
1C
1Y
0\
1g
0n
0q
1p
1m
0f
1[
0X
0@
0D
1F
1Z
1]
0`
0e
1h
0o
0p
0i
1f
0a
0^
0[
#330000
0#
0/
0>
0;
0?
#345000
1#
1/
1>
1;
1?
0C
0E
1G
0Y
0_
0b
0j
1n
0m
1i
0k
1a
1^
0c
1X
1@
0Z
0]
1e
0h
0l
1o
1p
1m
0i
0f
0^
1[
0d
0r
#360000
0#
0/
0>
0;
0?
#375000
1#
1/
1>
1;
1?
1C
1Y
1\
1b
0g
1q
0p
1f
0a
0[
0X
0@
1D
1U
1Z
1]
0e
1h
1l
0m
1i
0f
1^
1[
1X
#390000
0#
0/
0>
0;
0?
#405000
1#
1/
1>
1;
1?
0C
1E
1_
0b
1j
0n
0q
1p
1m
0i
1k
1a
0^
1c
1@
0U
1e
0h
0l
0m
1i
1f
0X
1d
1r
#420000
0#
0/
0>
0;
0?
#435000
1#
1/
1>
1;
1?
1C
0Y
0_
1b
1g
1q
0p
0f
0a
1^
0c
1X
0@
0D
0F
0H
1J
0Z
0e
1l
0o
1p
1m
1f
0[
0d
#450000
0#
0/
0>
0;
0?
#465000
1#
1/
1>
1;
1?
0C
0E
0G
0I
1K
1Y
0\
1_
0b
1n
0m
1a
0^
1c
1[
0X
1L
1N
0W
1@
0J
0]
0l
1X
0[
1^
0a
1m
1d
1=
13
1$
#480000
0#
0/
0>
0;
0?
#495000
1#
1/
1>
1;
1?
1C
0K
1M
1P
0O
1Q
0c
0@
1D
1U
1Z
1h
1o
0d
#510000
0#
0/
0>
0;
0?
#525000
1#
1/
1>
1;
1?
0C
1E
0P
1R
1d
1O
0k
1@
0U
1]
1`
1e
0h
0o
#540000
0#
0/
0>
0;
0?
#555000
1#
1/
1>
1;
1?
1C
1P
0O
0Q
1S
1c
1k
0@
0D
1F
1U
0Z
0]
0`
0e
1l
0d
#570000
0#
0/
0>
0;
0?
#585000
1#
1/
1>
1;
1?
0C
0E
1G
0P
0R
1T
0s
1d
1O
1@
1h
0l
#600000
0#
0/
0>
0;
0?
#615000
1#
1/
1>
1;
1?
1C
1P
0O
1Q
0c
0@
1D
1e
1o
0d
0t
0<
02
0"
#630000
0#
0/
0>
0;
0?
#645000
1#
1/
1>
1;
1?
0C
1E
0P
1R
1d
1O
0k
1@
1]
1l
1t
1<
12
1"
#660000
0#
0/
0>
0;
0?
#675000
1#
1/
1>
1;
1?
1C
1P
0O
0Q
0S
1c
1k
0@
0D
0F
1H
1`
0o
0d
0t
0<
02
0"
#690000
0#
0/
0>
0;
0?
#705000
1#
1/
1>
1;
1?
0C
0E
0G
1I
0P
0R
0T
1s
1d
1O
1@
0U
0]
1t
1<
12
1"
#720000
0#
0/
0>
0;
0?
#735000
1#
1/
1>
1;
1?
1C
1P
0O
1Q
0c
0@
1D
1Z
0`
0d
#750000
0#
0/
0>
0;
0?
#765000
1#
1/
1>
1;
1?
0C
1E
0P
1R
1d
1O
0k
1@
0Z
1`
0h
1o
#780000
0#
0/
0>
0;
0?
#795000
1#
1/
1>
1;
1?
1C
1P
0O
0Q
1S
1c
1k
0@
0D
1F
1Z
1]
0`
0e
1h
0o
0d
#810000
0#
0/
0>
0;
0?
#825000
1#
1/
1>
1;
1?
0C
0E
1G
0P
0R
1T
0s
1d
1O
1@
0Z
0]
1e
0h
0l
1o
#840000
0#
0/
0>
0;
0?
#855000
1#
1/
1>
1;
1?
1C
1P
0O
1Q
0c
0@
1D
1U
1Z
1]
0e
1h
1l
0d
0t
0<
02
0"
#870000
0#
0/
0>
0;
0?
#885000
1#
1/
1>
1;
1?
0C
1E
0P
1R
1d
1O
0k
1@
0U
1e
0h
0l
1t
1<
12
1"
#900000
0#
0/
0>
0;
0?
#915000
1#
1/
1>
1;
1?
1C
1P
0O
0Q
0S
1c
1k
0@
0D
0F
0H
1J
0Z
0e
1l
0o
0d
0t
0<
02
0"
#930000
0#
0/
0>
0;
0?
#945000
1#
1/
1>
1;
1?
0C
0E
0G
0I
1K
0P
0R
0T
1s
1d
1O
0L
1@
0J
0]
0l
1t
1<
12
1"
#960000
0#
0/
0>
0;
0?
#975000
1#
1/
1>
1;
1?
1C
0K
0M
1P
0O
1Q
0c
0N
1W
0@
1D
1U
1Z
1h
1o
1a
0i
0p
0P
0d
1O
0Q
1c
0=
1d
03
0$
#990000
0#
0/
0>
0;
0?
